<?xml version="1.0" encoding="utf-8"?>
<!-- Generator: Adobe Illustrator 17.1.0, SVG Export Plug-In . SVG Version: 6.00 Build 0)  -->
<!DOCTYPE svg PUBLIC "-//W3C//DTD SVG 1.1//EN" "http://www.w3.org/Graphics/SVG/1.1/DTD/svg11.dtd">
<svg version="1.1" xmlns="http://www.w3.org/2000/svg" xmlns:xlink="http://www.w3.org/1999/xlink" x="0px" y="0px"
	 viewBox="0 0 132.9 104.6" enable-background="new 0 0 132.9 104.6" xml:space="preserve">
<g id="Layer_1">
	<g>
		<path fill="none" stroke="#03BE9F" stroke-width="5" stroke-linecap="round" stroke-miterlimit="10" d="M2.5,102.1
			c11.4-11.4,25.5,2.8,36.9-8.6C50.8,82.1,36.6,68,48,56.6c11.4-11.4,25.5,2.8,36.9-8.6c11.4-11.4-2.8-25.5,8.6-36.9
			s25.5,2.8,36.9-8.6"/>
	</g>
	<g id="Halloween_Ghost_Costume_With_Fangs">
	</g>
</g>
<g id="Halloween_Spider_Web_With_The_Animal_Hanging">
</g>
<g id="Cassette_Outline">
</g>
<g id="Halloween_Eyeball_Outline">
</g>
<g id="Spaceship_Variant">
</g>
<g id="Spy_Japanese_Ninja">
</g>
<g id="Computer_Doodle_Outline">
</g>
<g id="Desktop_Button">
</g>
<g id="Tablet_Computer_Sketch">
</g>
<g id="Monitor_Sketch">
</g>
<g id="Add_Sketched_Symbol">
</g>
<g id="Linkedin_Sketched_Logo">
</g>
<g id="Behance_Sketched_Social_Logo">
</g>
<g id="Basket_Ball_In_A_Black_Circle">
</g>
</svg>
