<?xml version="1.0" encoding="utf-8"?>
<!-- Generator: Adobe Illustrator 17.1.0, SVG Export Plug-In . SVG Version: 6.00 Build 0)  -->
<!DOCTYPE svg PUBLIC "-//W3C//DTD SVG 1.1//EN" "http://www.w3.org/Graphics/SVG/1.1/DTD/svg11.dtd">
<svg version="1.1" xmlns="http://www.w3.org/2000/svg" xmlns:xlink="http://www.w3.org/1999/xlink" x="0px" y="0px"
	 viewBox="0 0 104 133.4" enable-background="new 0 0 104 133.4" xml:space="preserve">
<g id="Layer_1">
	<g>
		<path fill="none" stroke="#FFFFFF" stroke-width="5" stroke-linecap="round" stroke-miterlimit="10" d="M2.5,2.5
			C13.8,13.9-0.4,28,10.9,39.4c11.3,11.4,25.5-2.6,36.8,8.8c11.3,11.4-2.9,25.5,8.4,36.9c11.3,11.4,25.5-2.6,36.9,8.8
			s-2.9,25.5,8.4,36.9"/>
	</g>
	<g id="Halloween_Ghost_Costume_With_Fangs">
	</g>
</g>
<g id="Halloween_Spider_Web_With_The_Animal_Hanging">
</g>
<g id="Cassette_Outline">
</g>
<g id="Halloween_Eyeball_Outline">
</g>
<g id="Spaceship_Variant">
</g>
<g id="Spy_Japanese_Ninja">
</g>
<g id="Computer_Doodle_Outline">
</g>
<g id="Desktop_Button">
</g>
<g id="Tablet_Computer_Sketch">
</g>
<g id="Monitor_Sketch">
</g>
<g id="Add_Sketched_Symbol">
</g>
<g id="Linkedin_Sketched_Logo">
</g>
<g id="Behance_Sketched_Social_Logo">
</g>
<g id="Basket_Ball_In_A_Black_Circle">
</g>
</svg>
